<svg width="53" height="39" viewBox="0 0 53 39" fill="none" xmlns="http://www.w3.org/2000/svg">
<g clip-path="url(#clip0)">
<path d="M51.4 8.59999L44.1 1.39999C42.3 -0.400012 39.3 -0.400012 37.5 1.39999L29.7 9.09999C27.9 10.9 24.9 10.9 23.1 9.09999L15.3 1.39999C13.5 -0.400012 10.5 -0.400012 8.7 1.39999L1.6 8.59999C-0.400002 10.6 -0.500002 13.8 1.4 16L23.3 37.7C25.1 39.5 28.1 39.5 29.9 37.7L51.8 16C53.5 13.8 53.4 10.6 51.4 8.59999Z" fill="url(#paint0_linear)"/>
<path d="M23.2 9.1C25 10.9 28 10.9 29.8 9.1L37.6 1.4C38.4 0.5 39.5 0 40.7 0H12.3C13.5 0 14.6 0.5 15.4 1.3L23.2 9.1Z" fill="#170085"/>
</g>
<defs>
<linearGradient id="paint0_linear" x1="26.4758" y1="38.9966" x2="26.4758" y2="0.00261547" gradientUnits="userSpaceOnUse">
<stop stop-color="#CC0058"/>
<stop offset="1" stop-color="#FF4F62"/>
</linearGradient>
<clipPath id="clip0">
<rect width="53" height="39" fill="white"/>
</clipPath>
</defs>
</svg>
